{
    "ansible_facts": {
        "discovered_interpreter_python": "/usr/bin/python3"
    },
    "changed": false,
    "failed": false,
    "firmware_info": {
        "Firmware": [
            {
                "BuildNumber": "0",
                "Classifications": "10",
                "ComponentID": "101094",
                "ComponentType": "FRMW",
                "DeviceID": null,
                "ElementName": "Power Supply.Slot.1",
                "FQDD": "PSU.Slot.1",
                "IdentityInfoType": "OrgID:ComponentType:ComponentID",
                "IdentityInfoValue": "DCIM:firmware:101094",
                "InstallationDate": "2022-04-14T19:02:51Z",
                "InstanceID": "DCIM:INSTALLED#0x15__PSU.Slot.1",
                "IsEntity": "true",
                "Key": "DCIM:INSTALLED#0x15__PSU.Slot.1",
                "MajorVersion": "0",
                "MinorVersion": "16",
                "RevisionNumber": "4",
                "RevisionString": null,
                "Status": "Installed",
                "SubDeviceID": null,
                "SubVendorID": null,
                "Updateable": "true",
                "VendorID": null,
                "VersionString": "00.16.4F",
                "impactsTPMmeasurements": "false"
            },
            {
                "BuildNumber": "0",
                "Classifications": "10",
                "ComponentID": "101094",
                "ComponentType": "FRMW",
                "DeviceID": null,
                "ElementName": "Power Supply.Slot.2",
                "FQDD": "PSU.Slot.2",
                "IdentityInfoType": "OrgID:ComponentType:ComponentID",
                "IdentityInfoValue": "DCIM:firmware:101094",
                "InstallationDate": "2022-04-14T19:02:51Z",
                "InstanceID": "DCIM:INSTALLED#0x15__PSU.Slot.2",
                "IsEntity": "true",
                "Key": "DCIM:INSTALLED#0x15__PSU.Slot.2",
                "MajorVersion": "0",
                "MinorVersion": "16",
                "RevisionNumber": "4",
                "RevisionString": null,
                "Status": "Installed",
                "SubDeviceID": null,
                "SubVendorID": null,
                "Updateable": "true",
                "VendorID": null,
                "VersionString": "00.16.4F",
                "impactsTPMmeasurements": "false"
            },
            {
                "BuildNumber": "82",
                "Classifications": "10",
                "ComponentID": "25227",
                "ComponentType": "FRMW",
                "DeviceID": null,
                "ElementName": "Integrated Dell Remote Access Controller",
                "FQDD": "iDRAC.Embedded.1-1",
                "IdentityInfoType": "OrgID:ComponentType:ComponentID",
                "IdentityInfoValue": "DCIM:firmware:25227",
                "InstallationDate": "2022-04-14T13:05:05Z",
                "InstanceID": "DCIM:INSTALLED#iDRAC.Embedded.1-1#IDRACinfo",
                "IsEntity": "true",
                "Key": "DCIM:INSTALLED#iDRAC.Embedded.1-1#IDRACinfo",
                "MajorVersion": "2",
                "MinorVersion": "82",
                "RevisionNumber": "82",
                "RevisionString": null,
                "Status": "Installed",
                "SubDeviceID": null,
                "SubVendorID": null,
                "Updateable": "true",
                "VendorID": null,
                "VersionString": "2.82.82.82",
                "impactsTPMmeasurements": "false"
            },
            {
                "BuildNumber": "0",
                "Classifications": "10",
                "ComponentID": null,
                "ComponentType": "FRMW",
                "DeviceID": "1521",
                "ElementName": "Intel(R) Gigabit 4P I350-t rNDC - EC:F4:BB:C5:DA:20",
                "FQDD": "NIC.Integrated.1-1-1",
                "IdentityInfoType": "OrgID:ComponentType:VendorID:DeviceID:SubVendorID:SubDeviceID",
                "IdentityInfoValue": "DCIM:firmware:8086:1521:1028:1F60",
                "InstallationDate": "2022-04-14T13:14:53Z",
                "InstanceID": "DCIM:INSTALLED#701__NIC.Integrated.1-1-1",
                "IsEntity": "true",
                "Key": "DCIM:INSTALLED#701__NIC.Integrated.1-1-1",
                "MajorVersion": "19",
                "MinorVersion": "5",
                "RevisionNumber": "12",
                "RevisionString": null,
                "Status": "Installed",
                "SubDeviceID": "1F60",
                "SubVendorID": "1028",
                "Updateable": "true",
                "VendorID": "8086",
                "VersionString": "19.5.12",
                "impactsTPMmeasurements": "true"
            },
            {
                "BuildNumber": "0",
                "Classifications": "10",
                "ComponentID": null,
                "ComponentType": "FRMW",
                "DeviceID": "1521",
                "ElementName": "Intel(R) Gigabit 4P I350-t rNDC - EC:F4:BB:C5:DA:21",
                "FQDD": "NIC.Integrated.1-2-1",
                "IdentityInfoType": "OrgID:ComponentType:VendorID:DeviceID:SubVendorID:SubDeviceID",
                "IdentityInfoValue": "DCIM:firmware:8086:1521:1028:1F60",
                "InstallationDate": "2022-04-14T13:14:57Z",
                "InstanceID": "DCIM:INSTALLED#701__NIC.Integrated.1-2-1",
                "IsEntity": "true",
                "Key": "DCIM:INSTALLED#701__NIC.Integrated.1-2-1",
                "MajorVersion": "19",
                "MinorVersion": "5",
                "RevisionNumber": "12",
                "RevisionString": null,
                "Status": "Installed",
                "SubDeviceID": "1F60",
                "SubVendorID": "1028",
                "Updateable": "true",
                "VendorID": "8086",
                "VersionString": "19.5.12",
                "impactsTPMmeasurements": "true"
            },
            {
                "BuildNumber": "0",
                "Classifications": "10",
                "ComponentID": null,
                "ComponentType": "FRMW",
                "DeviceID": "1521",
                "ElementName": "Intel(R) Gigabit 4P I350-t rNDC - EC:F4:BB:C5:DA:22",
                "FQDD": "NIC.Integrated.1-3-1",
                "IdentityInfoType": "OrgID:ComponentType:VendorID:DeviceID:SubVendorID:SubDeviceID",
                "IdentityInfoValue": "DCIM:firmware:8086:1521:1028:1F60",
                "InstallationDate": "2022-04-14T13:15:01Z",
                "InstanceID": "DCIM:INSTALLED#701__NIC.Integrated.1-3-1",
                "IsEntity": "true",
                "Key": "DCIM:INSTALLED#701__NIC.Integrated.1-3-1",
                "MajorVersion": "19",
                "MinorVersion": "5",
                "RevisionNumber": "12",
                "RevisionString": null,
                "Status": "Installed",
                "SubDeviceID": "1F60",
                "SubVendorID": "1028",
                "Updateable": "true",
                "VendorID": "8086",
                "VersionString": "19.5.12",
                "impactsTPMmeasurements": "true"
            },
            {
                "BuildNumber": "0",
                "Classifications": "10",
                "ComponentID": null,
                "ComponentType": "FRMW",
                "DeviceID": "1521",
                "ElementName": "Intel(R) Gigabit 4P I350-t rNDC - EC:F4:BB:C5:DA:23",
                "FQDD": "NIC.Integrated.1-4-1",
                "IdentityInfoType": "OrgID:ComponentType:VendorID:DeviceID:SubVendorID:SubDeviceID",
                "IdentityInfoValue": "DCIM:firmware:8086:1521:1028:1F60",
                "InstallationDate": "2022-04-14T13:15:05Z",
                "InstanceID": "DCIM:INSTALLED#701__NIC.Integrated.1-4-1",
                "IsEntity": "true",
                "Key": "DCIM:INSTALLED#701__NIC.Integrated.1-4-1",
                "MajorVersion": "19",
                "MinorVersion": "5",
                "RevisionNumber": "12",
                "RevisionString": null,
                "Status": "Installed",
                "SubDeviceID": "1F60",
                "SubVendorID": "1028",
                "Updateable": "true",
                "VendorID": "8086",
                "VersionString": "19.5.12",
                "impactsTPMmeasurements": "true"
            },
            {
                "BuildNumber": "0",
                "Classifications": "11",
                "ComponentID": "159",
                "ComponentType": "BIOS",
                "DeviceID": null,
                "ElementName": "BIOS",
                "FQDD": "BIOS.Setup.1-1",
                "IdentityInfoType": "OrgID:ComponentType:ComponentID",
                "IdentityInfoValue": "DCIM:BIOS:159",
                "InstallationDate": "2022-04-14T13:14:55Z",
                "InstanceID": "DCIM:INSTALLED#741__BIOS.Setup.1-1",
                "IsEntity": "true",
                "Key": "DCIM:INSTALLED#741__BIOS.Setup.1-1",
                "MajorVersion": "2",
                "MinorVersion": "13",
                "RevisionNumber": "0",
                "RevisionString": null,
                "Status": "Installed",
                "SubDeviceID": null,
                "SubVendorID": null,
                "Updateable": "true",
                "VendorID": null,
                "VersionString": "2.13.0",
                "impactsTPMmeasurements": "true"
            },
            {
                "BuildNumber": "1",
                "Classifications": "10",
                "ComponentID": null,
                "ComponentType": "FRMW",
                "DeviceID": "005F",
                "ElementName": "PERC H330 Mini",
                "FQDD": "RAID.Integrated.1-1",
                "IdentityInfoType": "OrgID:ComponentType:VendorID:DeviceID:SubVendorID:SubDeviceID",
                "IdentityInfoValue": "DCIM:firmware:1000:005F:1028:1F4B",
                "InstallationDate": "2022-04-14T13:14:57Z",
                "InstanceID": "DCIM:INSTALLED#301_C_RAID.Integrated.1-1",
                "IsEntity": "true",
                "Key": "DCIM:INSTALLED#301_C_RAID.Integrated.1-1",
                "MajorVersion": "25",
                "MinorVersion": "5",
                "RevisionNumber": "9",
                "RevisionString": null,
                "Status": "Installed",
                "SubDeviceID": "1F4B",
                "SubVendorID": "1028",
                "Updateable": "true",
                "VendorID": "1000",
                "VersionString": "25.5.9.0001",
                "impactsTPMmeasurements": "true"
            },
            {
                "BuildNumber": "0",
                "Classifications": "10",
                "ComponentID": "101068",
                "ComponentType": "FRMW",
                "DeviceID": null,
                "ElementName": "BP13G+EXP 0:1",
                "FQDD": "Enclosure.Internal.0-1:RAID.Integrated.1-1",
                "IdentityInfoType": "OrgID:ComponentType:ComponentID",
                "IdentityInfoValue": "DCIM:firmware:101068",
                "InstallationDate": "2022-04-14T13:06:21Z",
                "InstanceID": "DCIM:INSTALLED#308_C_Enclosure.Internal.0-1:RAID.Integrated.1-1",
                "IsEntity": "true",
                "Key": "DCIM:INSTALLED#308_C_Enclosure.Internal.0-1:RAID.Integrated.1-1",
                "MajorVersion": "3",
                "MinorVersion": "35",
                "RevisionNumber": "0",
                "RevisionString": null,
                "Status": "Installed",
                "SubDeviceID": null,
                "SubVendorID": null,
                "Updateable": "true",
                "VendorID": null,
                "VersionString": "3.35",
                "impactsTPMmeasurements": "false"
            },
            {
                "BuildNumber": "82",
                "Classifications": "10",
                "ComponentID": "28897",
                "ComponentType": "APAC",
                "DeviceID": null,
                "ElementName": "Lifecycle Controller",
                "FQDD": "USC.Embedded.1:LC.Embedded.1",
                "IdentityInfoType": "OrgID:ComponentType:ComponentID",
                "IdentityInfoValue": "DCIM:firmware:28897",
                "InstallationDate": "2022-06-16T05:00:34Z",
                "InstanceID": "DCIM:INSTALLED#802__USC.Embedded.1:LC.Embedded.1",
                "IsEntity": "true",
                "Key": "DCIM:INSTALLED#802__USC.Embedded.1:LC.Embedded.1",
                "MajorVersion": "2",
                "MinorVersion": "82",
                "RevisionNumber": "82",
                "RevisionString": null,
                "Status": "Installed",
                "SubDeviceID": null,
                "SubVendorID": null,
                "Updateable": "false",
                "VendorID": null,
                "VersionString": "2.82.82.82",
                "impactsTPMmeasurements": "false"
            },
            {
                "BuildNumber": null,
                "Classifications": "10",
                "ComponentID": "25806",
                "ComponentType": "APAC",
                "DeviceID": null,
                "ElementName": "Dell 32 Bit uEFI Diagnostics, version 4239, 4239A36, 4239.44",
                "FQDD": "Diagnostics.Embedded.1:LC.Embedded.1",
                "IdentityInfoType": "OrgID:ComponentType:ComponentID",
                "IdentityInfoValue": "DCIM:firmware:25806",
                "InstallationDate": "2022-04-14T12:52:09Z",
                "InstanceID": "DCIM:INSTALLED#802__Diagnostics.Embedded.1:LC.Embedded.1",
                "IsEntity": "true",
                "Key": "DCIM:INSTALLED#802__Diagnostics.Embedded.1:LC.Embedded.1",
                "MajorVersion": null,
                "MinorVersion": null,
                "RevisionNumber": null,
                "RevisionString": null,
                "Status": "Installed",
                "SubDeviceID": null,
                "SubVendorID": null,
                "Updateable": "true",
                "VendorID": null,
                "VersionString": "4239A36",
                "impactsTPMmeasurements": "false"
            },
            {
                "BuildNumber": "0",
                "Classifications": "10",
                "ComponentID": "18981",
                "ComponentType": "APAC",
                "DeviceID": null,
                "ElementName": "Dell OS Driver Pack, 15.07.07, A00",
                "FQDD": "DriverPack.Embedded.1:LC.Embedded.1",
                "IdentityInfoType": "OrgID:ComponentType:ComponentID",
                "IdentityInfoValue": "DCIM:firmware:18981",
                "InstallationDate": "2015-10-22T18:24:21Z",
                "InstanceID": "DCIM:INSTALLED#802__DriverPack.Embedded.1:LC.Embedded.1",
                "IsEntity": "true",
                "Key": "DCIM:INSTALLED#802__DriverPack.Embedded.1:LC.Embedded.1",
                "MajorVersion": "15",
                "MinorVersion": "7",
                "RevisionNumber": "7",
                "RevisionString": null,
                "Status": "Installed",
                "SubDeviceID": null,
                "SubVendorID": null,
                "Updateable": "true",
                "VendorID": null,
                "VersionString": "15.07.07",
                "impactsTPMmeasurements": "false"
            },
            {
                "BuildNumber": "0",
                "Classifications": "10",
                "ComponentID": "101734",
                "ComponentType": "APAC",
                "DeviceID": null,
                "ElementName": "OS COLLECTOR 1.1, OSC_1.1, A00",
                "FQDD": "OSCollector.Embedded.1",
                "IdentityInfoType": "OrgID:ComponentType:ComponentID",
                "IdentityInfoValue": "DCIM:firmware:101734",
                "InstallationDate": "2015-10-22T18:24:21Z",
                "InstanceID": "DCIM:INSTALLED#802__OSCollector.Embedded.1",
                "IsEntity": "true",
                "Key": "DCIM:INSTALLED#802__OSCollector.Embedded.1",
                "MajorVersion": "0",
                "MinorVersion": "1",
                "RevisionNumber": "0",
                "RevisionString": null,
                "Status": "Installed",
                "SubDeviceID": null,
                "SubVendorID": null,
                "Updateable": "true",
                "VendorID": null,
                "VersionString": "OSC_1.1",
                "impactsTPMmeasurements": "false"
            },
            {
                "BuildNumber": "0",
                "Classifications": "10",
                "ComponentID": "27763",
                "ComponentType": "FRMW",
                "DeviceID": null,
                "ElementName": "System CPLD",
                "FQDD": "CPLD.Embedded.1",
                "IdentityInfoType": "OrgID:ComponentType:ComponentID",
                "IdentityInfoValue": "DCIM:firmware:27763",
                "InstallationDate": "2015-10-22T14:37:05Z",
                "InstanceID": "DCIM:INSTALLED#803__CPLD.Embedded.1",
                "IsEntity": "true",
                "Key": "DCIM:INSTALLED#803__CPLD.Embedded.1",
                "MajorVersion": "1",
                "MinorVersion": "0",
                "RevisionNumber": "1",
                "RevisionString": null,
                "Status": "Installed",
                "SubDeviceID": null,
                "SubVendorID": null,
                "Updateable": "true",
                "VendorID": null,
                "VersionString": "1.0.1",
                "impactsTPMmeasurements": "false"
            }
        ],
        "Subsystem": [],
        "System": [],
        "iDRAC": [],
        "iDRACString": []
    },
    "msg": "Successfully fetched the firmware inventory details."
}